{
  "project_info": {
    "project_number": "175266309804",
    "firebase_url": "https://nutripinoy-2c4d6.firebaseio.com",
    "project_id": "nutripinoy-2c4d6",
    "storage_bucket": "nutripinoy-2c4d6.appspot.com"
  },
  "client": [
    {
      "client_info": {
        "mobilesdk_app_id": "1:175266309804:android:07b7cd7c04190f6c342109",
        "android_client_info": {
          "package_name": "com.example.firebasereadwritedatabaseandspeechtotext"
        }
      },
      "oauth_client": [
        {
          "client_id": "175266309804-1kolccjoujtpcjek2ege7rcu1g7dus32.apps.googleusercontent.com",
          "client_type": 1,
          "android_info": {
            "package_name": "com.example.firebasereadwritedatabaseandspeechtotext",
            "certificate_hash": "aa883bfbfc73bc211a28292e327da4a0455a2cb1"
          }
        },
        {
          "client_id": "175266309804-56dqobdfifef1u3ltcpst3ulrtu7fnam.apps.googleusercontent.com",
          "client_type": 3
        }
      ],
      "api_key": [
        {
          "current_key": "AIzaSyB-etfceYrOz-JA2WXMc0Cn0OUReTJiKX0"
        }
      ],
      "services": {
        "appinvite_service": {
          "other_platform_oauth_client": [
            {
              "client_id": "175266309804-56dqobdfifef1u3ltcpst3ulrtu7fnam.apps.googleusercontent.com",
              "client_type": 3
            }
          ]
        }
      }
    },
    {
      "client_info": {
        "mobilesdk_app_id": "1:175266309804:android:c5aa4d82d869333a342109",
        "android_client_info": {
          "package_name": "com.example.nutri_pinoy"
        }
      },
      "oauth_client": [
        {
          "client_id": "175266309804-fhu0cg0t0g6465sjsa3m4gv7rpvfmg0a.apps.googleusercontent.com",
          "client_type": 1,
          "android_info": {
            "package_name": "com.example.nutri_pinoy",
            "certificate_hash": "d505be5ba1bd37dc1f71330303ce1fbbbc4783a2"
          }
        },
        {
          "client_id": "175266309804-56dqobdfifef1u3ltcpst3ulrtu7fnam.apps.googleusercontent.com",
          "client_type": 3
        }
      ],
      "api_key": [
        {
          "current_key": "AIzaSyB-etfceYrOz-JA2WXMc0Cn0OUReTJiKX0"
        }
      ],
      "services": {
        "appinvite_service": {
          "other_platform_oauth_client": [
            {
              "client_id": "175266309804-56dqobdfifef1u3ltcpst3ulrtu7fnam.apps.googleusercontent.com",
              "client_type": 3
            }
          ]
        }
      }
    },
    {
      "client_info": {
        "mobilesdk_app_id": "1:175266309804:android:99b14d39eb054510342109",
        "android_client_info": {
          "package_name": "com.example.nutri_pinoy.nutripinoy1"
        }
      },
      "oauth_client": [
        {
          "client_id": "175266309804-56dqobdfifef1u3ltcpst3ulrtu7fnam.apps.googleusercontent.com",
          "client_type": 3
        }
      ],
      "api_key": [
        {
          "current_key": "AIzaSyB-etfceYrOz-JA2WXMc0Cn0OUReTJiKX0"
        }
      ],
      "services": {
        "appinvite_service": {
          "other_platform_oauth_client": [
            {
              "client_id": "175266309804-56dqobdfifef1u3ltcpst3ulrtu7fnam.apps.googleusercontent.com",
              "client_type": 3
            }
          ]
        }
      }
    }
  ],
  "configuration_version": "1"
}